<?xml version="1.0" encoding="utf-8"?>
<!-- Generator: Adobe Illustrator 26.2.1, SVG Export Plug-In . SVG Version: 6.00 Build 0)  -->
<svg version="1.1" id="Layer_1" xmlns="http://www.w3.org/2000/svg" xmlns:xlink="http://www.w3.org/1999/xlink" x="0px" y="0px"
	 viewBox="0 0 560 300" style="enable-background:new 0 0 560 300;" xml:space="preserve">
<style type="text/css">
	.st0{opacity:0.2;}
	.st1{opacity:0.25;}
	.st2{fill:#007D7D;}
	.st3{fill:url(#SVGID_1_);}
	.st4{fill:url(#SVGID_00000150813592872964540720000009307123247376147127_);}
	.st5{fill:url(#SVGID_00000044864332691474240460000000975209354100295841_);}
	.st6{fill:url(#SVGID_00000053523386256273046650000008854002342477262723_);}
	.st7{fill:url(#SVGID_00000003085475344062993820000009993397693011496376_);}
	.st8{fill:url(#SVGID_00000125595443914562721750000006323173587648022444_);}
	.st9{fill:url(#SVGID_00000058578611580317393320000012380950937468421505_);}
	.st10{fill:url(#SVGID_00000070115052262231865220000007460327612628797602_);}
	.st11{fill:url(#SVGID_00000075851035386201287670000012265509448728085164_);}
	.st12{fill:url(#SVGID_00000120555549023587036750000008630576272874672038_);}
	.st13{fill:url(#SVGID_00000077296187676229121850000004457086392440729750_);}
	.st14{fill:url(#SVGID_00000083785295774260982370000010752336189909968294_);}
	.st15{fill:url(#SVGID_00000116219401509298199020000015860482734764617650_);}
	.st16{fill:url(#SVGID_00000033353873491305226150000009360788616790264973_);}
</style>
<g id="a">
</g>
<g id="b">
	<g class="st0">
		<g class="st1">
			<path class="st2" d="M94.1,0h-8.8c-5.5,10.6-16.5,17.9-29.2,17.9v8C73.3,25.9,88.1,15.1,94.1,0L94.1,0z"/>
			<path class="st2" d="M480.1,282.4c6.2,0,11.3,5.1,11.3,11.3v6.3h-8v-6.3c0-1.8-1.5-3.3-3.3-3.3c-1.8,0-3.3,1.5-3.3,3.3v6.3h-8
				v-6.3C468.8,287.5,473.9,282.4,480.1,282.4z"/>
			<rect x="411" y="281" class="st2" width="8" height="19"/>
			<rect x="392.1" y="273" class="st2" width="8" height="27"/>
			<rect x="373.2" y="259.9" class="st2" width="8" height="40.1"/>
			<path class="st2" d="M398.7,245h8v4c0,2.2,1.8,4,4,4h30.6v8h-30.6c-6.6,0-12-5.4-12-12V245z"/>
			<path class="st2" d="M446.4,219.3l5.7,5.7c-26.2,26.2-59.9,31.5-92.7,14.5l3.7-7.1C392.5,247.6,422.9,242.8,446.4,219.3z"/>
			<path class="st2" d="M433.3,206.2l5.7,5.7c-18.6,18.6-55.3,24.8-80.2,4.3l5.1-6.2c9.9,8.1,22.9,11.9,36.6,10.7
				C413.2,219.5,425.2,214.3,433.3,206.2z"/>
			<path class="st2" d="M355,169h8c0,24.4,17.8,33.1,33.1,33.1v8C375.6,210.1,355,197.4,355,169z"/>
			<rect x="336.1" y="169" class="st2" width="8" height="88"/>
			<rect x="276.1" y="125" class="st2" width="44" height="8"/>
			<path class="st2" d="M316.1,129h8c0,12.6,11.3,17.1,18.9,17.1v8C330,154.1,316.1,145.3,316.1,129z"/>
			<path class="st2" d="M300.1,129h8c0,6.9,0.8,14.7,10.1,20.6l-4.3,6.8C301.8,148.7,300.1,138.2,300.1,129L300.1,129z"/>
			<rect x="132.1" y="71" class="st2" width="56" height="8"/>
			<path class="st2" d="M207,114.7h55.6c11.3,0,20.4,9.2,20.4,20.4s-9.2,20.4-20.4,20.4H132.1v-8h130.5c6.9,0,12.4-5.6,12.4-12.4
				s-5.6-12.4-12.4-12.4H207V114.7z"/>
			<rect x="207" y="131.9" class="st2" width="37.1" height="8"/>
			<path class="st2" d="M230,135.8c0.2,8.9,4.8,17.9,14.2,27.6l-5.8,5.6c-10.8-11.2-16.2-21.9-16.4-32.9L230,135.8L230,135.8z"/>
			<path class="st2" d="M211,135.6c1.4,18.8,5.1,24,8.1,28.2l-6.5,4.6c-4.2-5.9-8.1-12.9-9.5-32.3L211,135.6L211,135.6z"/>
			<rect x="215.8" y="162.1" class="st2" width="57.4" height="8"/>
			<rect x="148.1" y="177.3" class="st2" width="152" height="8"/>
			<path class="st2" d="M291,205.2h8V219c0,1.1,0.9,2,2,2h39.1v8H301c-5.5,0-10-4.5-10-10V205.2z"/>
			<path class="st2" d="M304.1,237c11,0,20,9,20,20v43h-8v-43c0-6.6-5.4-12-12-12V237z"/>
			<rect x="280.1" y="273" class="st2" width="8" height="27"/>
			<path class="st2" d="M134.3,264.5l4.5,2.9c1.6,1,3.5,1.6,5.4,1.6h175.9v8H144.2c-3.5,0-6.8-1-9.7-2.8l-4.5-2.9L134.3,264.5
				L134.3,264.5z"/>
			<rect x="147" y="253" class="st2" width="8" height="20"/>
			<rect x="144.1" y="285" class="st2" width="44" height="8"/>
			<path class="st2" d="M224.1,237h8v42c0,7.7-6.3,14-14,14s-14-6.3-14-14v-22h8v22c0,3.3,2.7,6,6,6s6-2.7,6-6V237z"/>
			<rect x="260.1" y="257" class="st2" width="8" height="43"/>
			<rect x="211" y="207.4" class="st2" width="44" height="8"/>
			<rect x="92.1" y="193.3" class="st2" width="84" height="8"/>
			<path class="st2" d="M43.8,131.9h68v8h-68c-12.3,0-22.2,11.8-22.2,26.2v50.4c0,2.9,2.4,5.3,5.3,5.3s5.3-2.4,5.3-5.3v-40.4
				c0-17.6,14.4-32,32-32s32,14.4,32,32v21.2h-8v-21.2c0-13.2-10.8-24-24-24s-24,10.8-24,24v40.4c0,7.3-6,13.3-13.3,13.3
				s-13.3-6-13.3-13.3v-50.4C13.5,147.2,27.1,131.9,43.8,131.9z"/>
			<rect y="193.3" class="st2" width="50.7" height="8"/>
			<path class="st2" d="M97.9,85.6h74.2v8H97.9c-2.1,0-3.8,1.7-3.8,3.8s1.7,3.8,3.8,3.8h34.2v8H97.9c-6.5,0-11.8-5.3-11.8-11.8
				S91.3,85.6,97.9,85.6z"/>
			<path class="st2" d="M106.7,131.9h65.4v8h-65.4c-11.5,0-20,9.6-20,14.6h-8c0-5.1,3.2-10.8,8.5-15.2
				C92.7,134.5,99.7,131.9,106.7,131.9z"/>
			<rect class="st2" width="40.1" height="8"/>
			<path class="st2" d="M80.5,33c9.1,5.8,19.2,7.8,30.7,6l1.2,7.9c-13.5,2-25.4-0.3-36.2-7.2L80.5,33L80.5,33z"/>
			<rect x="107.8" y="43" class="st2" width="8" height="46.6"/>
			<path class="st2" d="M43.8,55h30.9v8H43.8c-2.2,0-4,1.8-4,4s1.8,4,4,4h52v8h-52c-6.6,0-12-5.4-12-12S37.2,55,43.8,55z"/>
			<rect x="107.8" y="121.6" class="st2" width="8" height="44.5"/>
			<rect y="117.6" class="st2" width="172.1" height="8"/>
			<rect y="131.9" class="st2" width="39.8" height="8"/>
			<path class="st2" d="M49.5,161.8c8.2,0,16.5,1.5,26.5,11.5l-5.7,5.7c-9.7-9.7-16.1-9.4-25.9-9.1c-2,0.1-4,0.2-6.2,0.2H0v-8h38.3
				c2,0,4-0.1,5.9-0.1C46,161.9,47.8,161.8,49.5,161.8L49.5,161.8z"/>
			<rect x="52.1" y="21.9" class="st2" width="8" height="37.1"/>
			<path class="st2" d="M151.1,221h117v8h-117c-8.3,0-15,6.7-15,15v56h-8v-56C128.1,231.3,138.4,221,151.1,221z"/>
			<path class="st2" d="M150.1,203.9c23.2,0,42,18.8,42,42V300h-8v-54.1c0-18.8-15.2-34-34-34s-34,15.2-34,34V300h-8v-54.1
				C108.1,222.7,126.9,203.9,150.1,203.9z"/>
			<path class="st2" d="M52.1,211.9h8V257c0,6.7,7.8,12,14.2,12h0.4c7,0,13.4-5.7,13.4-12h8c0,10.6-10,20-21.4,20h-0.4
				c-10.5,0-22.2-8.5-22.2-20V211.9z"/>
			<path class="st2" d="M1,237h75.1c6.6,0,12,5.4,12,12s-5.4,12-12,12h-40v-8h40c2.2,0,4-1.8,4-4s-1.8-4-4-4H1V237z"/>
			<rect x="12.1" y="251.9" class="st2" width="8" height="48.1"/>
			<rect y="269" class="st2" width="36.1" height="8"/>
			<rect x="92.1" y="253" class="st2" width="20" height="8"/>
			<path class="st2" d="M298.1,177.8l4,6.9c-9.9,5.7-23.2,12.2-39.1,12.2v-8C273.9,189,284.7,185.5,298.1,177.8z"/>
			<path class="st2" d="M192.6,203.1c8.9,3.8,14.1,11,15.5,21.4l-7.9,1.1c-1-7.6-4.5-12.4-10.7-15.1L192.6,203.1L192.6,203.1z"/>
		</g>
		<g>
			
				<linearGradient id="SVGID_1_" gradientUnits="userSpaceOnUse" x1="517.4" y1="177.25" x2="627.4" y2="177.25" gradientTransform="matrix(-1 0 0 -1 628.6 200)">
				<stop  offset="0" style="stop-color:#89D861"/>
				<stop  offset="1" style="stop-color:#6BAA75"/>
			</linearGradient>
			<path class="st3" d="M103,0c-4.8,21.5-24,37.5-46.8,37.5c-22.9,0-42-16.1-46.8-37.5H1.2c4.9,25.9,27.7,45.5,55,45.5
				s50.1-19.6,55-45.5H103L103,0z"/>
			
				<linearGradient id="SVGID_00000085216688697465791630000013068129685581962925_" gradientUnits="userSpaceOnUse" x1="152.5" y1="-80.3" x2="200.5" y2="-80.3" gradientTransform="matrix(-1 0 0 -1 628.6 200)">
				<stop  offset="0" style="stop-color:#89D861"/>
				<stop  offset="1" style="stop-color:#6BAA75"/>
			</linearGradient>
			<path style="fill:url(#SVGID_00000085216688697465791630000013068129685581962925_);" d="M439.4,269h36.7v8h-36.7
				c-1.8,0-3.3,1.5-3.3,3.3c0,1.8,1.5,3.3,3.3,3.3H455v8h-15.6c-6.2,0-11.3-5.1-11.3-11.3C428.1,274.1,433.2,269,439.4,269z"/>
			
				<linearGradient id="SVGID_00000100371922127608689810000018318311804248242105_" gradientUnits="userSpaceOnUse" x1="306.7" y1="37.35" x2="444.5" y2="37.35" gradientTransform="matrix(-1 0 0 -1 628.6 200)">
				<stop  offset="0" style="stop-color:#89D861"/>
				<stop  offset="1" style="stop-color:#6BAA75"/>
			</linearGradient>
			<path style="fill:url(#SVGID_00000100371922127608689810000018318311804248242105_);" d="M184.1,109.3h8v26.9
				c0,39.5,32.2,71.7,71.7,71.7c20,0,38.6-8,52.3-22.6l5.8,5.5c-15,16-36.2,25.2-58.1,25.2c-43.9,0-79.7-35.8-79.7-79.7L184.1,109.3
				L184.1,109.3z"/>
			
				<linearGradient id="SVGID_00000035517836687764904050000013122194972234163126_" gradientUnits="userSpaceOnUse" x1="288.5" y1="-41" x2="344.5" y2="-41" gradientTransform="matrix(-1 0 0 -1 628.6 200)">
				<stop  offset="0" style="stop-color:#89D861"/>
				<stop  offset="1" style="stop-color:#6BAA75"/>
			</linearGradient>
			<rect x="284.1" y="237" style="fill:url(#SVGID_00000035517836687764904050000013122194972234163126_);" width="56" height="8"/>
			
				<linearGradient id="SVGID_00000121267558526330771720000006689216786705224852_" gradientUnits="userSpaceOnUse" x1="259.8" y1="-73" x2="400.5" y2="-73" gradientTransform="matrix(-1 0 0 -1 628.6 200)">
				<stop  offset="0" style="stop-color:#89D861"/>
				<stop  offset="1" style="stop-color:#6BAA75"/>
			</linearGradient>
			<path style="fill:url(#SVGID_00000121267558526330771720000006689216786705224852_);" d="M228.1,253h120.7c11,0,20,9,20,20
				s-9,20-20,20h-64.7v-8h64.7c6.6,0,12-5.4,12-12s-5.4-12-12-12H228.1V253z"/>
			
				<linearGradient id="SVGID_00000179612306756911643810000003560113226783003295_" gradientUnits="userSpaceOnUse" x1="460.5" y1="-45" x2="460.5" y2="-100" gradientTransform="matrix(-1 0 0 -1 628.6 200)">
				<stop  offset="0" style="stop-color:#89D861"/>
				<stop  offset="1" style="stop-color:#6BAA75"/>
			</linearGradient>
			<rect x="164.1" y="245" style="fill:url(#SVGID_00000179612306756911643810000003560113226783003295_);" width="8" height="55"/>
			
				<linearGradient id="SVGID_00000077326256567990718640000014294943762049645219_" gradientUnits="userSpaceOnUse" x1="558.4" y1="3.4" x2="628.6" y2="3.4" gradientTransform="matrix(-1 0 0 -1 628.6 200)">
				<stop  offset="0" style="stop-color:#89D861"/>
				<stop  offset="1" style="stop-color:#6BAA75"/>
			</linearGradient>
			<path style="fill:url(#SVGID_00000077326256567990718640000014294943762049645219_);" d="M0,177.3h50.9
				c10.6,0,19.3,8.7,19.3,19.3s-8.6,19.3-19.3,19.3H0v-8h50.9c6.2,0,11.3-5.1,11.3-11.3s-5.1-11.3-11.3-11.3H0V177.3z"/>
			
				<linearGradient id="SVGID_00000045594731587207376170000001100614184477941139_" gradientUnits="userSpaceOnUse" x1="555.3" y1="60.9" x2="628.5" y2="60.9" gradientTransform="matrix(-1 0 0 1 628.6 0)">
				<stop  offset="0" style="stop-color:#89D861"/>
				<stop  offset="1" style="stop-color:#6BAA75"/>
			</linearGradient>
			<path style="fill:url(#SVGID_00000045594731587207376170000001100614184477941139_);" d="M24.1,28.1v8c-6.9,0-17,10.4-17,24.8
				s11.1,24.8,24.8,24.8h41.4v8H31.9C13.8,93.7,0.1,79,0.1,60.9S12.3,28.1,24.1,28.1L24.1,28.1z"/>
			
				<linearGradient id="SVGID_00000147205314712128408120000012993766254348162484_" gradientUnits="userSpaceOnUse" x1="548.5" y1="-89" x2="628.6" y2="-89" gradientTransform="matrix(-1 0 0 -1 628.6 200)">
				<stop  offset="0" style="stop-color:#89D861"/>
				<stop  offset="1" style="stop-color:#6BAA75"/>
			</linearGradient>
			<rect y="285" style="fill:url(#SVGID_00000147205314712128408120000012993766254348162484_);" width="80.1" height="8"/>
			
				<linearGradient id="SVGID_00000049939921052601586940000017084659094912348591_" gradientUnits="userSpaceOnUse" x1="592.5" y1="-72.67" x2="592.5" y2="-100" gradientTransform="matrix(-1 0 0 -1 628.6 200)">
				<stop  offset="0" style="stop-color:#89D861"/>
				<stop  offset="1" style="stop-color:#6BAA75"/>
			</linearGradient>
			
				<rect x="32.1" y="272.7" style="fill:url(#SVGID_00000049939921052601586940000017084659094912348591_);" width="8" height="27.3"/>
			
				<linearGradient id="SVGID_00000100380120334339415110000007469582083073948342_" gradientUnits="userSpaceOnUse" x1="552.5" y1="-17" x2="552.5" y2="-41" gradientTransform="matrix(-1 0 0 -1 628.6 200)">
				<stop  offset="0" style="stop-color:#89D861"/>
				<stop  offset="1" style="stop-color:#6BAA75"/>
			</linearGradient>
			<rect x="72.1" y="217" style="fill:url(#SVGID_00000100380120334339415110000007469582083073948342_);" width="8" height="24"/>
			
				<linearGradient id="SVGID_00000016035605021413517220000009348627798355861669_" gradientUnits="userSpaceOnUse" x1="433.9" y1="33.9" x2="516.8" y2="33.9" gradientTransform="matrix(-1 0 0 -1 628.6 200)">
				<stop  offset="0" style="stop-color:#6BAA75"/>
				<stop  offset="1" style="stop-color:#89D861"/>
			</linearGradient>
			
				<rect x="111.8" y="162.1" style="fill:url(#SVGID_00000016035605021413517220000009348627798355861669_);" width="82.9" height="8"/>
			
				<linearGradient id="SVGID_00000087382528625790155060000012899876616109936563_" gradientUnits="userSpaceOnUse" x1="489.4" y1="125" x2="489.4" y2="30" gradientTransform="matrix(-1 0 0 -1 628.6 200)">
				<stop  offset="0" style="stop-color:#6BAA75"/>
				<stop  offset="1" style="stop-color:#89D861"/>
			</linearGradient>
			<path style="fill:url(#SVGID_00000087382528625790155060000012899876616109936563_);" d="M128.1,75h8v72.8
				c0,7.9,6.4,14.2,14.2,14.2v8c-12.3,0-22.2-10-22.2-22.2V75z"/>
			
				<linearGradient id="SVGID_00000176019594227435260380000016570864225309754270_" gradientUnits="userSpaceOnUse" x1="566.6" y1="141" x2="566.6" y2="86.37" gradientTransform="matrix(-1 0 0 -1 628.6 200)">
				<stop  offset="0" style="stop-color:#6BAA75"/>
				<stop  offset="1" style="stop-color:#89D861"/>
			</linearGradient>
			<path style="fill:url(#SVGID_00000176019594227435260380000016570864225309754270_);" d="M70.5,59h8v21.7c0,18.2-14.8,33-33,33
				v-8c13.8,0,25-11.2,25-25V59L70.5,59z"/>
		</g>
		<g>
			<circle class="st2" cx="476.1" cy="273" r="4"/>
			<circle class="st2" cx="436.1" cy="209" r="4"/>
			<circle class="st2" cx="396.1" cy="206.1" r="4"/>
			<circle class="st2" cx="320.1" cy="129" r="4"/>
			<ellipse class="st2" cx="304.1" cy="129" rx="4" ry="4"/>
			<circle class="st2" cx="277.8" cy="129" r="4"/>
			<circle class="st2" cx="244.1" cy="135.9" r="4"/>
			<circle class="st2" cx="226" cy="135.9" r="4"/>
			<circle class="st2" cx="230.3" cy="151.6" r="4"/>
			<circle class="st2" cx="209.9" cy="151.6" r="4"/>
			<circle class="st2" cx="161.2" cy="151.6" r="4"/>
			<circle class="st2" cx="207" cy="135.9" r="4"/>
			<circle class="st2" cx="241.2" cy="166.1" r="4"/>
			<circle class="st2" cx="215.8" cy="166.1" r="4"/>
			<circle class="st2" cx="194.7" cy="166.1" r="4"/>
			<circle class="st2" cx="150.4" cy="166.1" r="4"/>
			<circle class="st2" cx="111.8" cy="166.1" r="4"/>
			<circle class="st2" cx="111.8" cy="135.9" r="4"/>
			<circle class="st2" cx="82.7" cy="154.4" r="4"/>
			<circle class="st2" cx="111.8" cy="121.6" r="4"/>
			<circle class="st2" cx="39.8" cy="135.9" r="4"/>
			<circle class="st2" cx="45.5" cy="109.6" r="4"/>
			<circle class="st2" cx="111.8" cy="89.6" r="4"/>
			<circle class="st2" cx="73.2" cy="89.6" r="4"/>
			<circle class="st2" cx="111.8" cy="43" r="4"/>
			<circle class="st2" cx="95.8" cy="24" r="4"/>
			<circle class="st2" cx="78.4" cy="36.4" r="4"/>
			<circle class="st2" cx="38.3" cy="166.1" r="4"/>
			<circle class="st2" cx="17.5" cy="166.1" r="4"/>
			<circle class="st2" cx="273.2" cy="166.1" r="4"/>
			<circle class="st2" cx="300.1" cy="181.3" r="4"/>
			<circle class="st2" cx="319" cy="188" r="4"/>
			<circle class="st2" cx="263" cy="193" r="4"/>
			<circle class="st2" cx="295" cy="205.2" r="4"/>
			<circle class="st2" cx="255" cy="211.4" r="4"/>
			<circle class="st2" cx="320.1" cy="289" r="4"/>
			<circle class="st2" cx="320.1" cy="273" r="4"/>
			<circle class="st2" cx="320.1" cy="257" r="4"/>
			<circle class="st2" cx="340.1" cy="257" r="4"/>
			<circle class="st2" cx="340.1" cy="241" r="4"/>
			<ellipse class="st2" cx="304.1" cy="241" rx="4" ry="4"/>
			<circle class="st2" cx="284.1" cy="241" r="4"/>
			<circle class="st2" cx="284.1" cy="273" r="4"/>
			<circle class="st2" cx="264.1" cy="273" r="4"/>
			<circle class="st2" cx="264.1" cy="257" r="4"/>
			<circle class="st2" cx="228.1" cy="257" r="4"/>
			<circle class="st2" cx="228.1" cy="237" r="4"/>
			<circle class="st2" cx="228.1" cy="273" r="4"/>
			<circle class="st2" cx="208.1" cy="257" r="4"/>
			<circle class="st2" cx="211.4" cy="211.4" r="4"/>
			<circle class="st2" cx="208.1" cy="273" r="4"/>
			<circle class="st2" cx="188.1" cy="257" r="4"/>
			<circle class="st2" cx="191" cy="206.8" r="4"/>
			<circle class="st2" cx="188.1" cy="273" r="4"/>
			<circle class="st2" cx="284.1" cy="289" r="4"/>
			<circle class="st2" cx="188.1" cy="289" r="4"/>
			<circle class="st2" cx="168.1" cy="273" r="4"/>
			<circle class="st2" cx="168.1" cy="245" r="4"/>
			<circle class="st2" cx="172.1" cy="135.9" r="4"/>
			<circle class="st2" cx="151" cy="273" r="4"/>
			<circle class="st2" cx="151" cy="253" r="4"/>
			<circle class="st2" cx="132.1" cy="267.9" r="4"/>
			<circle class="st2" cx="168.1" cy="289" r="4"/>
			<circle class="st2" cx="144.1" cy="289" r="4"/>
			<circle class="st2" cx="340.1" cy="225" r="4"/>
			<circle class="st2" cx="268.1" cy="225" r="4"/>
			<circle class="st2" cx="184.1" cy="225" r="4"/>
			<circle class="st2" cx="151" cy="225" r="4"/>
			<circle class="st2" cx="148.1" cy="181.3" r="4"/>
			<circle class="st2" cx="184.1" cy="181.3" r="4"/>
			<circle class="st2" cx="204.1" cy="225" r="4"/>
			<circle class="st2" cx="340.1" cy="169" r="4"/>
			<circle class="st2" cx="343" cy="150.1" r="4"/>
			<circle class="st2" cx="316.1" cy="153" r="4"/>
			<circle class="st2" cx="359" cy="169" r="4"/>
			<circle class="st2" cx="361.2" cy="235.9" r="4"/>
			<circle class="st2" cx="361.2" cy="213" r="4"/>
			<circle class="st2" cx="377.2" cy="259.9" r="4"/>
			<circle class="st2" cx="396.1" cy="225" r="4"/>
			<circle class="st2" cx="396.1" cy="273" r="4"/>
			<circle class="st2" cx="402.7" cy="245" r="4"/>
			<circle class="st2" cx="415" cy="281" r="4"/>
			<circle class="st2" cx="441.2" cy="257" r="4"/>
			<circle class="st2" cx="449.2" cy="222.1" r="4"/>
			<circle class="st2" cx="455" cy="287.6" r="4"/>
			<circle class="st2" cx="112.1" cy="281" r="4"/>
			<circle class="st2" cx="112.1" cy="257" r="4"/>
			<circle class="st2" cx="92.1" cy="257" r="4"/>
			<circle class="st2" cx="56.1" cy="257" r="4"/>
			<circle class="st2" cx="56.1" cy="241" r="4"/>
			<circle class="st2" cx="16.1" cy="251.9" r="4"/>
			<circle class="st2" cx="56.1" cy="225" r="4"/>
			<circle class="st2" cx="56.1" cy="211.9" r="4"/>
			<circle class="st2" cx="36.1" cy="211.1" r="4"/>
			<circle class="st2" cx="17.5" cy="211.1" r="4"/>
			<circle class="st2" cx="36.1" cy="197.3" r="4"/>
			<ellipse class="st2" cx="50.7" cy="197.3" rx="4" ry="4"/>
			<circle class="st2" cx="92.1" cy="197.3" r="4"/>
			<circle class="st2" cx="124.1" cy="197.3" r="4"/>
			<circle class="st2" cx="176.1" cy="197.3" r="4"/>
			<circle class="st2" cx="17.5" cy="197.3" r="4"/>
			<circle class="st2" cx="36.1" cy="181.3" r="4"/>
			<circle class="st2" cx="73.2" cy="176.2" r="4"/>
			<circle class="st2" cx="74.7" cy="75" r="4"/>
			<circle class="st2" cx="74.7" cy="59" r="4"/>
			<circle class="st2" cx="56.1" cy="59" r="4"/>
			<circle class="st2" cx="56.1" cy="40.8" r="4"/>
			<circle class="st2" cx="40.1" cy="4" r="4"/>
			<circle class="st2" cx="24.1" cy="32.1" r="4"/>
			<circle class="st2" cx="8.1" cy="43" r="4"/>
			<circle class="st2" cx="56.1" cy="21.9" r="4"/>
			<circle class="st2" cx="17.5" cy="181.3" r="4"/>
			<circle class="st2" cx="36.1" cy="257" r="4"/>
			<circle class="st2" cx="36.1" cy="273" r="4"/>
			<circle class="st2" cx="36.1" cy="289" r="4"/>
			<circle class="st2" cx="16.1" cy="289" r="4"/>
			<circle class="st2" cx="16.1" cy="273" r="4"/>
			<circle class="st2" cx="80.1" cy="289" r="4"/>
			<circle class="st2" cx="76.1" cy="241" r="4"/>
			<circle class="st2" cx="76.1" cy="217" r="4"/>
			<circle class="st2" cx="207" cy="118.7" r="4"/>
			<circle class="st2" cx="188.1" cy="109.3" r="4"/>
			<circle class="st2" cx="172.1" cy="121.6" r="4"/>
			<circle class="st2" cx="172.1" cy="89.6" r="4"/>
			<circle class="st2" cx="188.1" cy="75" r="4"/>
			<circle class="st2" cx="132.1" cy="105.3" r="4"/>
			<circle class="st2" cx="132.1" cy="135.9" r="4"/>
			<circle class="st2" cx="132.1" cy="151.6" r="4"/>
			<circle class="st2" cx="132.1" cy="75" r="4"/>
			<circle class="st2" cx="95.8" cy="75" r="4"/>
			<circle class="st2" cx="68.1" cy="121.6" r="4"/>
			<circle class="st2" cx="20.1" cy="121.6" r="4"/>
		</g>
	</g>
</g>
</svg>
